{
  "Deploy": {
    "Project": {
      "Name": "route hijacking v9",
      "Alias": "route-hijacking-v9",
      "Id": "9323de00-2461-4a62-a33c-5524d28ed543",
      "Workspaces": [
        {
          "Id": "eff6afa5-69af-412f-8267-841d8085b013",
          "Name": "Live",
          "Type": "live",
          "Url": "https://route-hijacking-v9.euwest01.umbraco.io"
        }
      ]
    },
    "Settings": {
      "ApiKey": "02BF4298129285A547F46D6EDF4F32179EE412F6"
    }
  },
  "Identity": {
    "ClientId": "0297c0f6-83ad-4481-9ae2-07a3f5475333",
    "ClientSecret": "Q5~T526ixOHlj47lg7Mu7_.zN1fK.7ua.9",
    "EnvironmentId": "eff6afa5-69af-412f-8267-841d8085b013",
    "LocalLoginRedirectUri": "https://redirect.identity.umbraco.com"
  }
}